ngram_size,raw_data,raw_data_no_repeat,random_data
2,5.944444444444445,5.565527065527066,7.988684582743988
3,1.7626641651031896,1.6800825593395252,1.0341225626740946
4,1.2001675041876048,1.1824953445065176,0.9979050279329609
5,1.0929308975377283,1.0886524822695036,0.9964961457603364
6,1.0478026214340785,1.0337662337662337,0.9964838255977496
7,1.023502653525398,1.020460358056266,0.9964714184897672
8,1.0149812734082397,1.0185341196293176,0.9964589235127479
9,1.0140949554896141,1.0091973244147157,0.9964463397299218
