ngram_size,raw_data,raw_data_no_repeat,random_data
2,4.367073170731707,3.6942392909896604,6.129221732745962
3,1.6726137377341659,1.437125748502994,1.0182348650619986
4,1.21256038647343,1.0949656750572083,0.9948642699926632
5,1.070817120622568,1.0080091533180777,0.9933530280649926
6,1.0314900153609832,0.994232987312572,0.9933085501858736
7,1.0114854517611025,0.9895104895104895,0.9932634730538922
8,1.0076511094108647,0.9893992932862191,0.9932177844762623
9,1.0030651340996168,0.9892857142857143,0.9931714719271624
