ngram_size,raw_data,raw_data_no_repeat,random_data
2,3.9184397163120566,3.3916184971098264,6.593103448275862
3,1.7840531561461794,1.5337837837837838,1.011875
4,1.2889210716871833,1.162839248434238,0.9937106918238994
5,1.1092896174863387,1.0537525354969575,0.9936708860759493
6,1.0537491705374917,1.0210843373493976,0.9936305732484076
7,1.0281782437745741,1.0030120481927711,0.9935897435897436
8,1.0019659239842726,0.9969758064516129,0.9935483870967742
9,1.0019672131147541,0.9959432048681541,0.9935064935064936
