ngram_size,raw_data,raw_data_no_repeat,random_data
2,5.574165636588381,5.110091743119266,6.83249581239531
3,1.5535885167464114,1.3670811130846654,1.0046044370029301
4,1.1265250790781745,1.0417633410672853,0.996218487394958
5,1.050420168067227,1.004060324825986,0.9962041332770982
6,1.0245291283399036,0.9976717112922002,0.9961896697713802
7,1.0122110771914523,0.9970794392523364,0.9961750956226094
8,1.0069625761531766,0.9964809384164223,0.996160409556314
9,1.0039147455415398,0.9952857984678845,0.9961456102783726
