ngram_size,raw_data,raw_data_no_repeat,random_data
2,5.859611231101512,5.355117139334156,6.705840957072484
3,1.6084089035449298,1.4274111675126904,1.0119298245614035
4,1.1287820015515904,1.0612043435340572,0.9929328621908127
5,1.0568612585291888,1.013779527559055,0.9928825622775801
6,1.0232732732732732,1.0029615004935835,0.992831541218638
7,1.016417910447761,0.9960278053624627,0.9927797833935018
8,1.005965697240865,0.995,0.9927272727272727
9,1.000747384155456,0.9929435483870968,0.9926739926739927
