ngram_size,raw_data,raw_data_no_repeat,random_data
2,5.031726662599146,4.609673024523161,7.042576419213974
3,1.581860465116279,1.4661246612466126,1.0079883805374001
4,1.1837769328263625,1.1337708228167591,0.9963556851311953
5,1.074493927125506,1.0408062930186823,0.9963423555230432
6,1.033320111067037,1.0237403100775193,0.9966960352422908
7,1.0246478873239437,1.0115495668912415,0.9966850828729282
8,1.0162980209545984,1.0052808449351895,0.9966740576496674
9,1.009273570324575,0.9990384615384615,0.996662958843159
